Getting Started
…
library(yfR)
library(ggplot2)

my_ticker <- c('FB', 'GM', 'MMM')
first_date <- Sys.Date() - 100
last_date <- Sys.Date()

df_yf_multiple <- yf_get(tickers = my_ticker, 
                         first_date = first_date,
                         last_date = last_date)

print(df_yf_multiple)

## # A tibble: 204 × 11
##    ticker ref_date   price_open price_high price_low price_close   volume
##  * <chr>  <date>          <dbl>      <dbl>     <dbl>       <dbl>    <dbl>
##  1 FB     2022-03-21       214.       215.      208.        211. 30142338
##  2 FB     2022-03-22       211.       219.      210.        217. 31998799
##  3 FB     2022-03-23       213.       217.      212.        213. 23717321
##  4 FB     2022-03-24       215        221.      215.        220. 31502314
##  5 FB     2022-03-25       221.       226.      219.        222. 40039026
##  6 FB     2022-03-28       222.       224.      220.        224. 26224141
##  7 FB     2022-03-29       226.       231.      225.        230. 31417857
##  8 FB     2022-03-30       229.       231.      227.        228. 25588046
##  9 FB     2022-03-31       228.       228.      222.        222. 24192266
## 10 FB     2022-04-01       225.       227.      223.        225. 19544758
## # … with 194 more rows, and 4 more variables: price_adjusted <dbl>,
## #   ret_adjusted_prices <dbl>, ret_closing_prices <dbl>,
## #   cumret_adjusted_prices <dbl>
…
